myLabs/labTwo/qurt/simulation/qsim/proj.msim.vcd
$comment
	File created using the following command:
		vcd file proj.msim.vcd -direction
$end
$date
	Wed Oct 07 12:43:53 2020
$end
$version
	ModelSim Version 2020.1
$end
$timescale
	1ps
$end

$scope module multiplex_vlg_vec_tst $end
$var reg 3 ! a [2:0] $end
$var reg 1 " en $end
$var reg 8 # x [7:0] $end
$var wire 1 $ f $end

$scope module i1 $end
$var wire 1 % gnd $end
$var wire 1 & vcc $end
$var wire 1 ' unknown $end
$var tri1 1 ( devclrn $end
$var tri1 1 ) devpor $end
$var tri1 1 * devoe $end
$var wire 1 + ~QUARTUS_CREATED_GND~I_combout $end
$var wire 1 , a[1]~input_o $end
$var wire 1 - a[2]~input_o $end
$var wire 1 . a[0]~input_o $end
$var wire 1 / x[4]~input_o $end
$var wire 1 0 x[0]~input_o $end
$var wire 1 1 f~1_combout $end
$var wire 1 2 x[1]~input_o $end
$var wire 1 3 x[5]~input_o $end
$var wire 1 4 f~2_combout $end
$var wire 1 5 x[6]~input_o $end
$var wire 1 6 x[2]~input_o $end
$var wire 1 7 f~3_combout $end
$var wire 1 8 x[3]~input_o $end
$var wire 1 9 x[7]~input_o $end
$var wire 1 : f~4_combout $end
$var wire 1 ; f~5_combout $end
$var wire 1 < en~input_o $end
$upscope $end
$upscope $end
$enddefinitions $end
#0
$dumpvars
b0 !
0"
b10010111 #
1$
0%
1&
x'
1(
1)
1*
0+
0,
0-
0.
1/
10
11
12
03
04
05
16
07
08
19
0:
1;
0<
$end
#50000
b1 !
1.
14
01
#100000
b11 !
b10 !
0.
1,
17
04
#150000
b11 !
1.
07
0;
0$
#200000
b111 !
b101 !
b100 !
0.
0,
1-
11
1;
1$
#250000
b101 !
1.
01
0;
0$
#300000
b111 !
b110 !
0.
1,
#350000
b111 !
1.
1:
1;
1$
#370000
1"
1<
z$
#400000
b11 !
b1 !
b0 !
0.
0,
0-
0:
11
#450000
b1 !
1.
14
01
#500000
b11 !
b10 !
0.
1,
17
04
#530000
0"
0<
1$
#550000
b11 !
1.
07
0;
0$
#600000
b111 !
b101 !
b100 !
0.
0,
1-
11
1;
1$
#650000
b101 !
1.
01
0;
0$
#700000
b111 !
b110 !
0.
1,
#750000
b111 !
1.
1:
1;
1$
#800000
b11 !
b1 !
b0 !
0.
0,
0-
0:
11
#850000
b1 !
1.
14
01
#900000
b11 !
b10 !
0.
1,
17
04
#950000
b11 !
1.
07
0;
0$
